[
    {"pk": 1, "model": "graph.softcat", "fields": {"name": "webserver"}},
    {"pk": 2, "model": "graph.softcat", "fields": {"name": "database server"}},
    {"pk": 3, "model": "graph.softcat", "fields": {"name": "web cache"}},
    {"pk": 4, "model": "graph.softcat", "fields": {"name": "app server"}},
    {"pk": 1, "model": "graph.software", "fields": {"name": "apache", "category": 1}},
    {"pk": 2, "model": "graph.software", "fields": {"name": "nginx", "category": 1}},
    {"pk": 3, "model": "graph.software", "fields": {"name": "lighttpd", "category": 1}},
    {"pk": 4, "model": "graph.software", "fields": {"name": "postgresql", "category": 2}},
    {"pk": 5, "model": "graph.software", "fields": {"name": "mysql", "category": 2}},
    {"pk": 6, "model": "graph.software", "fields": {"name": "varnish", "category": 3}},
    {"pk": 7, "model": "graph.software", "fields": {"name": "squid", "category": 3}},
    {"pk": 8, "model": "graph.software", "fields": {"name": "haproxy", "category": 3}},
    {"pk": 9, "model": "graph.software", "fields": {"name": "tomcat", "category": 4}},

    {"pk": 1, "model": "graph.source", "fields": {"name": "collectd", "description": "collectd"}},
    {"pk": 2, "model": "graph.source", "fields": {"name": "collectl", "description": "collectl"}},
    {"pk": 3, "model": "graph.source", "fields": {"name": "munin", "description": "munin"}},
    {"pk": 1,
     "model": "graph.dashboard",
     "fields": {"name": "Only system",
                "description": "Apache, postgresql,memcached"}},
    {"pk": 2,
     "model": "graph.dashboard",
     "fields": {"name": "Lighttpd", "description": "Ligttpd, postgresql,memcached"}
     },
    {"pk": 3,
     "model": "graph.dashboard",
     "fields": {"name": "Memcached only", "description": "memcached"}},
    {"pk": 4, "model": "graph.dashboard", 
     "fields": {"name": "Nginx", "description": "nginx details"}},
    {"pk": 5, "model": "graph.dashboard", 
     "fields": {"name": "PostgreSQL", "description": "PostgreSQL"}},
    {"pk": 6, "model": "graph.dashboard", 
     "fields": {"name": "Collectd host", "description": "Host with collectd"}},
    {"pk": 7, "model": "graph.dashboard", 
     "fields": {"name": "Tsung", "description": "tsung datas only"}},

    {"pk": 1,
     "model": "graph.graphdefinition",
     "fields": {"name": "Tsung Code 200",
		"target": "movingAverage(derivative({{target}}.tsung.http_200.value),5)",
		"title": "return code 200",
		"aliases": "code 200",
		"ymin": "0",
                "family": "tsung",
		"vtitle" : "code / sec"}
    },
    {"pk": 2,
     "model": "graph.graphdefinition",
     "fields": {"name": "Tsung Code 500",
		"target": "derivative({{target}}.tsung.http_500.value)",
		"title": "Error 500 code",
                "ymin": "0",
                "family": "tsung",
		"vtitle" : "code"}
    },
    {"pk": 3,
     "model": "graph.graphdefinition",
     "fields": {"name": "Tsung Sessions",
		"target": "{{target}}.tsung.session.mean",
		"title": "Whole Session mean duration",
		"ymin": "0",
		"aliases": "session mean",
                "family": "tsung",
                "areaMode": "first",
		"vtitle" : "msec"}
    },
    {"pk": 4,
     "model": "graph.graphdefinition",
     "fields": {"name": "Tsung page",
		"target": "{{target}}.tsung.page.max|{{target}}.tsung.session.max",
		"title": "Duration max",
		"ymin": "0",
		"aliases": "page max|session max",
                "family": "tsung",
		"vtitle" : "msec"}
    },
    {"pk": 5,
     "model": "graph.graphdefinition",
     "fields": {"name": "Tsung connected users",
		"target": "{{target}}.tsung.connected.value",
		"title": "Simultaneous users",
		"aliases": "users connected",
		"ymin": "0",
                "family": "tsung",
		"vtitle" : "users"}
    },
    {"pk": 6,
     "model": "graph.graphdefinition",
     "fields": {"name": "Tsung request",
		"target": "{{target}}.tsung.connect.mean|{{target}}.tsung.request.mean",
		"title": "Request and connection",
		"aliases": "connect|request",
		"ymin": "0",
                "family": "tsung",
		"vtitle" : "msec"}
    },
    {"pk": 7,
     "model": "graph.graphdefinition",
     "fields": {"name": "Tsung size",
		"target": "{{target}}.tsung.size_sent.value|{{target}}.tsung.size_rcv.value",
		"title": "Network traffic",
		"ymin": "0",
		"aliases": "sent|receive",
                "family": "tsung",
                "areaMode": "first",
                "colorList": "green,blue",
		"vtitle" : "bits/sec"}
    },
    {"pk": 8,
     "model": "graph.graphdefinition",
     "fields": {"name": "Tsung users_count",
		"target": "movingAverage({{target}}.tsung.users_count.value,6)|movingAverage({{target}}.tsung.finish_users_count.value,6)",
		"title": "users_count",
		"ymin": "0",
		"aliases": "users_count|finish_users_count",
                "family": "tsung",
                "areaMode": "first",
                "colorList": "pink,purple",
		"vtitle" : "users"}
    },
    {"pk": 9,
     "model": "graph.graphdefinition",
     "fields": {"name": "Lighttpd",
		"target": "{{target}}.lighttpd.lighttpd_busyservers.data",
		"title": "lighttpd busy servers",
		"ymin": "0",
                "family": "main",
                "areaMode": "first",
		"vtitle" : "servers"}
    },
    {"pk": 10,
     "model": "graph.graphdefinition",
     "fields": {"name": "Munin threads",
		"target": "{{target}}.processes.threads.threads",
		"title": "Threads",
		"vtitle" : "threads"}
    },
    {"pk": 11,
     "model": "graph.graphdefinition",
     "fields": {"name": "Munin Memcached items",
		"target": "{{target}}.memcache.memcached_counters.memcache_curr_items",
		"title": "Memcached items",
		"vtitle": "items",
		"ymin": "0",
                "family": "main",
		"areaMode": "first"}
    },
    {"pk": 12,
     "model": "graph.graphdefinition",
     "fields": {"name": "meminfo",
		"target": "{{target}}.meminfo.cached|{{target}}.meminfo.buf|{{target}}.meminfo.shared",
		"title": "meminfo",
		"ymin": "0",
                "family": "main",
		"vtitle": "KBits",
		"areaMode": "stacked"}
    },
    {"pk": 13,
     "model": "graph.graphdefinition",
     "fields": {"name": "meminfo free",
		"target": "{{target}}.meminfo.used|{{target}}.meminfo.free",
		"title": "meminfo",
		"vtitle": "KBits",
		"ymin": "0",
                "family": "main",
                "colorList": "red,green",
		"areaMode": "stacked"}
    },
    {"pk": 14,
     "model": "graph.graphdefinition",
     "fields": {"name": "Load average",
		"target": "{{target}}.cpuload.avg1",
		"title": "Load average",
                "colorList": "green,blue"}
    },
    {"pk": 15,
     "model": "graph.graphdefinition",
     "fields": {"name": "Disks",
		"target": "{{target}}.disktotals.reads|{{target}}.disktotals.writes",
		"title": "disks",
		"vtitle": "op/sec",
		"ymin": "0",
                "family": "main",
                "colorList": "green,purple"}
    },
    {"pk": 16,
     "model": "graph.graphdefinition",
     "fields": {"name": "Disks",
		"target": "{{target}}.disktotals.readkbs|{{target}}.disktotals.writekbs",
		"title": "disks",
		"vtitle": "KB/sec",
		"ymin": "0",
                "family": "main",
                "areaMode": "stacked",
                "colorList": "green,purple"}
    },
    {"pk": 17,
     "model": "graph.graphdefinition",
     "fields": {"name": "CPU",
		"target": "{{target}}.cputotals.user|{{target}}.cputotals.sys|{{target}}.cputotals.wait|{{target}}.cputotals.soft|{{target}}.cputotals.idle",
		"title": "cpu usage",
		"vtitle": "",
		"ymin": "0",
                "family": "main",
		"ymax": "100",
                "areaMode": "stacked",
                "colorList": "green,blue,orange,pink,a0d0a088"}
    },
    {"pk": 18,
     "model": "graph.graphdefinition",
     "fields": {"name": "Sockets",
		"target": "{{target}}.sockinfo.used|{{target}}.sockinfo.orphan",
		"title": "sockets used",
		"vtitle": "sockets",
		"ymin": "0",
                "family": "main",
                "colorList": "pink,orange"}
    },
    {"pk": 19,
     "model": "graph.graphdefinition",
     "fields": {"name": "Sockets",
		"target": "{{target}}.sockinfo.tcp",
		"title": "tcp sockets",
		"vtitle": "sockets",
		"ymin": "0",
                "family": "main",
                "colorList": "orange"}
    },
    {"pk": 20,
     "model": "graph.graphdefinition",
     "fields": {"name": "Pageinfo out",
		"target": "{{target}}.pageinfo.out",
		"title": "pageinfo",
		"ymin": "0",
                "family": "main",
		"areaMode": "first"}
    },
    {"pk": 21,
     "model": "graph.graphdefinition",
     "fields": {"name": "Pageinfo in",
		"target": "{{target}}.pageinfo.in",
		"title": "pageinfo",
		"ymin": "0",
                "family": "main",
		"areaMode": "first"}
    },
    {"pk": 22,
     "model": "graph.graphdefinition",
     "fields": {"name": "Munin open files",
		"target": "{{target}}.system.open_files.used",
		"title": "open files",
                "vtitle": "files",
		"areaMode": "first"}
    },
    {"pk": 23,
     "model": "graph.graphdefinition",
     "fields": {"name": "Open files collectl",
		"target": "{{target}}.inodeinfo.fhandalloc",
		"title": "open files",
                "vtitle": "files",
		"areaMode": "first"}
    },
    {"pk": 24,
     "model": "graph.graphdefinition",
     "fields": {"name": "Tsung page",
		"target": "{{target}}.tsung.page.mean",
		"title": "Page duration",
		"colorList": "brown",
		"aliases": "page mean",
		"ymin": "0",
                "family": "tsung",
		"vtitle" : "msec"}
    },
    {"pk": 25,
     "model": "graph.graphdefinition",
     "fields": {"name": "Collectd load",
		"target": "{{target}}.collectd.load.load.shortterm",
		"aliases": "Load 1min",
		"title": "Load",
		"ymin": "0",
                "family": "main",
		"vtitle" : "load"}
    },
    {"pk": 26,
     "model": "graph.graphdefinition",
     "fields": {"name": "Collectd memcached",
		"target": "{{target}}.collectd.memcached.df-cache.used|{{target}}.collectd.memcached.df-cache.free",
		"title": "Memcached usage",
		"areaMode": "stacked",
		"colorList": "orange,green",
		"ymin": "0",
                "family": "cache",
		"yUnitSystem": "binary",
		"vtitle" : "bits"}
    },
    {"pk": 27,
     "model": "graph.graphdefinition",
     "fields": {"name": "Collectd memcached usage",
		"target": "derivative({{target}}.collectd.memcached.memcached_octets.rx)|derivative({{target}}.collectd.memcached.memcached_octets.tx)",
		"title": "Memcached network",
		"ymin": "0",
                "family": "cache",
		"yUnitSystem": "binary",
		"vtitle" : "octets"}
    },
    {"pk": 28,
     "model": "graph.graphdefinition",
     "fields": {"name": "Memcached items (collectd)",
		"target": "{{target}}.collectd.memcached.memcached_items-current",
		"title": "Memcached items",
		"ymin": "0",
                "family": "cache",
		"areaMode" : "first",
		"vtitle" : "items"}
    },
    {"pk": 29,
     "model": "graph.graphdefinition",
     "fields": {"name": "Memcached operations (collectd)",
		"target": "scale(derivative({{target}}.collectd.memcached.memcached_ops-hits),0.1)|scale(derivative({{target}}.collectd.memcached.memcached_ops-misses),0.1)",
		"title": "Memcached operations",
		"ymin": "0",
                "family": "cache",
		"vtitle" : "ops/sec"}
    },
    {"pk": 30,
     "model": "graph.graphdefinition",
     "fields": {"name": "Memcached evictions (collectd)",
		"target": "scale(derivative({{target}}.collectd.memcached.memcached_ops-evictions),0.1)",
		"title": "Memcached evictions",
		"ymin": "0",
                "family": "cache",
		"vtitle" : "ops/sec"}
    },
    {"pk": 31,
     "model": "graph.graphdefinition",
     "fields": {"name": "Nginx requests rate (collectd)",
		"target": "scale(derivative({{target}}.collectd.nginx.nginx_requests),0.1)",
		"title": "Nginx requests rate",
		"ymin": "0",
                "family": "nginx",
		"vtitle" : "requ/sec"}
    },
    {"pk": 32,
     "model": "graph.graphdefinition",
     "fields": {"name": "PostgresQL connections (collectd)",
		"target": "derivative({{target}}.collectd.tcpconns-5432-local.tcp_connections-ESTABLISHED)",
		"title": "Postgresql connections",
		"ymin": "0",
                "family": "main",
		"vtitle" : "conns"}
    },
    {"pk": 33,
     "model": "graph.graphdefinition",
     "fields": {"name": "PostgreSQL pg_writer (collectd)",
		"target": "derivative({{target}}.collectd.processes-pg_writer.ps_cputime.user)|derivative({{target}}.collectd.processes-pg_writer.ps_cputime.syst)",
		"title": "Postgresql pg_writer cpu time",
		"ymin": "0"}
    },
    {"pk": 34,
     "model": "graph.graphdefinition",
     "fields": {"name": "PostgreSQL pg_autovacuum (collectd)",
		"target": "derivative({{target}}.collectd.processes-pg_autovacuum.ps_cputime.user)|derivative({{target}}.collectd.processes-pg_autovacuum.ps_cputime.syst)",
		"title": "Postgresql pg_autovacuum cpu time",
		"ymin": "0"}
    },
    {"pk": 35,
     "model": "graph.graphdefinition",
     "fields": {"name": "PostgreSQL pg_stats (collectd)",
		"target": "derivative({{target}}.collectd.processes-pg_stats.ps_cputime.user)|derivative({{target}}.collectd.processes-pg_stats.ps_cputime.syst)",
		"title": "Postgresql pg_stats cpu time",
		"ymin": "0"}
    },
    {"pk": 36,
     "model": "graph.graphdefinition",
     "fields": {"name": "PostgreSQL pg_wal (collectd)",
		"target": "derivative({{target}}.collectd.processes-pg_wal.ps_cputime.user)|derivative({{target}}.collectd.processes-pg_wal.ps_cputime.syst)",
		"title": "Postgresql pg_wal cpu time",
		"ymin": "0"}
    },
    {"pk": 37,
     "model": "graph.graphdefinition",
     "fields": {"name": "PostgreSQL pg_writer (collectd)",
		"target": "derivative({{target}}.collectd.processes-pg_writer.ps_disk_octets.read)|derivative({{target}}.collectd.processes-pg_writer.ps_disk_octets.write)",
		"title": "Postgresql pg_writer cpu time",
		"ymin": "0"}
    },
    {"pk": 38,
     "model": "graph.graphdefinition",
     "fields": {"name": "PostgreSQL pg_autovacuum (collectd)",
		"target": "derivative({{target}}.collectd.processes-pg_autovacuum.ps_disk_octets.read)|derivative({{target}}.collectd.processes-pg_autovacuum.ps_disk_octets.write)",
		"title": "Postgresql pg_autovacuum cpu time",
		"ymin": "0"}
    },
    {"pk": 39,
     "model": "graph.graphdefinition",
     "fields": {"name": "PostgreSQL pg_stats (collectd)",
		"target": "derivative({{target}}.collectd.processes-pg_stats.ps_disk_octets.read)|derivative({{target}}.collectd.processes-pg_stats.ps_disk_octets.write)",
		"title": "Postgresql pg_stats cpu time",
		"ymin": "0"}
    },
    {"pk": 40,
     "model": "graph.graphdefinition",
     "fields": {"name": "PostgreSQL pg_wal (collectd)",
		"target": "derivative({{target}}.collectd.processes-pg_wal.ps_disk_octets.read)|derivative({{target}}.collectd.processes-pg_wal.ps_disk_octets.write)",
		"title": "Postgresql pg_wal cpu time",
		"ymin": "0"}
    },
    {"pk": 41,
     "model": "graph.graphdefinition",
     "fields": {"name": "Processes (collectd)",
		"target": "{{target}}.collectd.processes.ps_state-running|{{target}}.collectd.processes.ps_state-sleeping",
		"areaMode": "stacked",
		"title": "Processes",
		"vtitle": "nb processes",
		"aliases": "running|sleeping",
		"ymin": "0"}
    },
    {"pk": 42,
     "model": "graph.graphdefinition",
     "fields": {"name": "Memory (collectd)",
		"target": "{{target}}.collectd.memory.memory-used|{{target}}.collectd.memory.memory-cached|{{target}}.collectd.memory.memory-buffered|{{target}}.collectd.memory.memory-free",
		"areaMode": "stacked",
		"colorList": "orange,blue,yellow,green",
		"title": "Memory",
		"aliases": "used|cached|buffered|free",
		"vtitle": "bytes",
		"yUnitSystem": "binary",
		"ymin": "0"}
    },
    {"pk": 43,
     "model": "graph.graphdefinition",
     "fields": {"name": "Network (collectd)",
     		"target": "scale(derivative({{target}}.collectd.interface-eth0.if_octets.tx),0.8)|scale(derivative({{target}}.collectd.interface-eth0.if_octets.rx),0.8)",
		"title": "Network eth0",
		"aliases": "tx|rx",
		"vtitle": "bits/sec",
		"yUnitSystem": "binary",
		"ymin": "0"}
    },
    {"pk": 44,
     "model": "graph.graphdefinition",
     "fields": {"name": "Disks (collectd)",
     		"target": "scale(derivative({{target}}.collectd.disk-vda.disk_ops.write),0.1)|scale(derivative({{target}}.collectd.disk-vda.disk_ops.read),0.1)",
		"title": "disk ops %%disk%%",
		"vtitle": "op/sec",
		"aliases": "write|read",
		"ymin": "0",
                "family": "disk",
                "colorList": "green,purple"}
    },
    {"pk": 45,
     "model": "graph.graphdefinition",
     "fields": {"name": "Disks (collectd)",
     		"target": "scale(derivative({{target}}.collectd.disk-vda.disk_octets.write),0.1)|scale(derivative({{target}}.collectd.disk-vda.disk_octets.read),0.1)",
		"title": "disk bytes %%disk%%",
		"vtitle": "bytes/sec",
		"aliases": "write|read",
		"ymin": "0",
                "family": "disk",
		"yUnitSystem": "binary",
                "colorList": "green,purple"}
    },
    {"pk": 46,
     "model": "graph.graphdefinition",
     "fields": {"name": "Swap (collectd)",
     		"target": "derivative({{target}}.collectd.swap.swap_io-in)|derivative({{target}}.collectd.swap.swap_io-out)",
		"title": "swap",
		"vtitle": "op/sec",
		"aliases": "in|out",
		"ymin": "0",
                "family": "swap",
                "colorList": "green,purple"}
    },
    {"pk": 47,
     "model": "graph.graphdefinition",
     "fields": {"name": "Collectd memcached usage",
		"target": "derivative({{target}}.collectd.memcached.memcached_command-set)|derivative({{target}}.collectd.memcached.memcached_command-get)",
		"title": "Memcached command",
		"ymin": "0",
                "family": "cache",
		"vtitle" : "op/sec"}
    },
    {"pk": 48,
     "model": "graph.graphdefinition",
     "fields": {"name": "Collectd memcached usage",
		"target": "{{target}}.collectd.memcached.memcached_connections-current",
		"title": "Memcached connections",
		"ymin": "0",
                "family": "cache",
		"areaMode": "all",
		"colorList": "red",
		"vtitle" : "conns"}
    },
    {"pk": 49,
     "model": "graph.graphdefinition",
     "fields": {"name": "Nginx active connections (collectd)",
		"target": "{{target}}.collectd.nginx.nginx_connections-active",
		"title": "Nginx active connections",
		"ymin": "0",
                "family": "nginx",
		"vtitle" : "conns"}
    },
    {"pk": 50,
     "model": "graph.graphdefinition",
     "fields": {"name": "Nginx connections (collectd)",
		"target": "{{target}}.collectd.nginx.nginx_connections-reading",
		"title": "Nginx reading connections",
		"ymin": "0",
                "family": "nginx",
		"vtitle" : "conns"}
    },
    {"pk": 51,
     "model": "graph.graphdefinition",
     "fields": {"name": "Nginx connections (collectd)",
		"target": "{{target}}.collectd.nginx.nginx_connections-waiting",
		"title": "Nginx waiting connections",
		"ymin": "0",
                "family": "nginx",
		"colorList": "green",
		"vtitle" : "conns"}
    },
    {"pk": 52,
     "model": "graph.graphdefinition",
     "fields": {"name": "Nginx connections (collectd)",
		"target": "{{target}}.collectd.nginx.nginx_connections-writing",
		"title": "Nginx writing connections",
		"ymin": "0",
                "family": "nginx",
		"colorList": "red",
		"vtitle" : "conns"}
    },
    {"pk": 53,
     "model": "graph.graphdefinition",
     "fields": {"name": "Tsung page rate",
		"target": "scale(derivative({{target}}.tsung.page.global_count),0.1)",
		"title": "Page rate",
		"colorList": "brown",
		"aliases": "pages",
		"ymin": "0",
                "family": "tsung",
		"vtitle" : "page / sec"}
    },
    {"pk": 54,
     "model": "graph.graphdefinition",
     "fields": {"name": "Tsung match_stop",
		"target": "scale(derivative({{target}}.tsung.match_stop.total),0.1)",
		"title": "Aborted sessions",
		"colorList": "brown",
		"aliases": "match_stop",
		"ymin": "0",
                "family": "tsung",
		"vtitle" : "match / sec"}
    },
    {"pk": 55,
     "model": "graph.graphdefinition",
     "fields": {"name": "Tsung match_stop",
		"target": "scale(derivative({{target}}.tsung.match.total),0.1)",
		"title": "Matched values",
		"colorList": "orange",
		"aliases": "match",
		"ymin": "0",
                "family": "tsung",
		"vtitle" : "match / sec"}
    },


    {"pk": 1,  "model": "graph.dashitem", "fields": {"dash": 2, "graph": 1, "order": 1} },
    {"pk": 2,  "model": "graph.dashitem", "fields": {"dash": 2, "graph": 2, "order": 60} },
    {"pk": 3,  "model": "graph.dashitem", "fields": {"dash": 2, "graph": 3, "order": 3} },
    {"pk": 4,  "model": "graph.dashitem", "fields": {"dash": 2, "graph": 4, "order": 4} },
    {"pk": 5,  "model": "graph.dashitem", "fields": {"dash": 2, "graph": 5, "order": 5} },
    {"pk": 6,  "model": "graph.dashitem", "fields": {"dash": 2, "graph": 6, "order": 3} },
    {"pk": 7,  "model": "graph.dashitem", "fields": {"dash": 2, "graph": 7, "order": 7} },
    {"pk": 8,  "model": "graph.dashitem", "fields": {"dash": 2, "graph": 8, "order": 8} },
    {"pk": 9,  "model": "graph.dashitem", "fields": {"dash": 2, "graph": 9, "order": 9} },
    {"pk": 10, "model": "graph.dashitem", "fields": {"dash": 2, "graph": 10, "order": 10} },
    {"pk": 11, "model": "graph.dashitem", "fields": {"dash": 2, "graph": 11, "order": 11} },
    {"pk": 12, "model": "graph.dashitem", "fields": {"dash": 2, "graph": 12, "order": 12} },
    {"pk": 13, "model": "graph.dashitem", "fields": {"dash": 2, "graph": 13, "order": 13} },
    {"pk": 14, "model": "graph.dashitem", "fields": {"dash": 2, "graph": 14, "order": 14} },
    {"pk": 15, "model": "graph.dashitem", "fields": {"dash": 2, "graph": 15, "order": 15} },
    {"pk": 16, "model": "graph.dashitem", "fields": {"dash": 2, "graph": 16, "order": 16} },
    {"pk": 17, "model": "graph.dashitem", "fields": {"dash": 2, "graph": 17, "order": 17} },
    {"pk": 18, "model": "graph.dashitem", "fields": {"dash": 2, "graph": 18, "order": 18} },
    {"pk": 19, "model": "graph.dashitem", "fields": {"dash": 2, "graph": 19, "order": 19} },
    {"pk": 24, "model": "graph.dashitem", "fields": {"dash": 2, "graph": 22, "order": 22} },
    {"pk": 25, "model": "graph.dashitem", "fields": {"dash": 2, "graph": 23, "order": 23} },
    {"pk": 26, "model": "graph.dashitem", "fields": {"dash": 2, "graph": 24, "order": 3} },
    {"pk": 27, "model": "graph.dashitem", "fields": {"dash": 2, "graph": 25, "order": 50} },
    {"pk": 23, "model": "graph.dashitem", "fields": {"dash": 2, "graph": 31, "order": 20} },
    {"pk": 34, "model": "graph.dashitem", "fields": {"dash": 2, "graph": 32, "order": 30} },

    {"pk": 22, "model": "graph.dashitem", "fields": {"dash": 1, "graph": 14, "order": 1} },
    {"pk": 23, "model": "graph.dashitem", "fields": {"dash": 1, "graph": 15, "order": 10} },
    {"pk": 44, "model": "graph.dashitem", "fields": {"dash": 1, "graph": 21, "order": 20} },
    {"pk": 45, "model": "graph.dashitem", "fields": {"dash": 1, "graph": 16, "order": 10} },
    {"pk": 46, "model": "graph.dashitem", "fields": {"dash": 1, "graph": 23, "order": 20} },
    {"pk": 47, "model": "graph.dashitem", "fields": {"dash": 1, "graph": 24, "order": 20} },
    {"pk": 48, "model": "graph.dashitem", "fields": {"dash": 1, "graph": 25, "order": 20} },
    {"pk": 49, "model": "graph.dashitem", "fields": {"dash": 1, "graph": 26, "order": 20} },
    {"pk": 50, "model": "graph.dashitem", "fields": {"dash": 1, "graph": 17, "order": 2} },
    {"pk": 64, "model": "graph.dashitem", "fields": {"dash": 1, "graph": 53, "order": 2} },
    {"pk": 65, "model": "graph.dashitem", "fields": {"dash": 1, "graph": 54, "order": 30} },
    {"pk": 66, "model": "graph.dashitem", "fields": {"dash": 1, "graph": 55, "order": 31} },

    {"pk": 28, "model": "graph.dashitem", "fields": {"dash": 3, "graph": 26, "order": 10} },
    {"pk": 29, "model": "graph.dashitem", "fields": {"dash": 3, "graph": 27, "order": 2} },
    {"pk": 30, "model": "graph.dashitem", "fields": {"dash": 3, "graph": 28, "order": 30} },
    {"pk": 31, "model": "graph.dashitem", "fields": {"dash": 3, "graph": 29, "order": 3} },
    {"pk": 32, "model": "graph.dashitem", "fields": {"dash": 3, "graph": 30, "order": 3} },
    {"pk": 58, "model": "graph.dashitem", "fields": {"dash": 3, "graph": 47, "order": 1} },
    {"pk": 59, "model": "graph.dashitem", "fields": {"dash": 3, "graph": 48, "order": 1} },

    {"pk": 33, "model": "graph.dashitem", "fields": {"dash": 4, "graph": 31, "order": 3} },
    {"pk": 60, "model": "graph.dashitem", "fields": {"dash": 4, "graph": 49, "order": 3} },
    {"pk": 61, "model": "graph.dashitem", "fields": {"dash": 4, "graph": 50, "order": 3} },
    {"pk": 62, "model": "graph.dashitem", "fields": {"dash": 4, "graph": 51, "order": 3} },
    {"pk": 63, "model": "graph.dashitem", "fields": {"dash": 4, "graph": 52, "order": 3} },

    {"pk": 35, "model": "graph.dashitem", "fields": {"dash": 5, "graph": 32, "order": 3} },
    {"pk": 36, "model": "graph.dashitem", "fields": {"dash": 5, "graph": 33, "order": 3} },
    {"pk": 37, "model": "graph.dashitem", "fields": {"dash": 5, "graph": 34, "order": 3} },
    {"pk": 38, "model": "graph.dashitem", "fields": {"dash": 5, "graph": 35, "order": 3} },
    {"pk": 39, "model": "graph.dashitem", "fields": {"dash": 5, "graph": 36, "order": 3} },
    {"pk": 40, "model": "graph.dashitem", "fields": {"dash": 5, "graph": 37, "order": 23} },
    {"pk": 41, "model": "graph.dashitem", "fields": {"dash": 5, "graph": 38, "order": 23} },
    {"pk": 42, "model": "graph.dashitem", "fields": {"dash": 5, "graph": 39, "order": 23} },
    {"pk": 43, "model": "graph.dashitem", "fields": {"dash": 5, "graph": 40, "order": 23} },

    {"pk": 51, "model": "graph.dashitem", "fields": {"dash": 6, "graph": 25, "order": 10} },
    {"pk": 52, "model": "graph.dashitem", "fields": {"dash": 6, "graph": 41, "order": 20} },
    {"pk": 53, "model": "graph.dashitem", "fields": {"dash": 6, "graph": 42, "order": 20} },
    {"pk": 54, "model": "graph.dashitem", "fields": {"dash": 6, "graph": 43, "order": 20} },
    {"pk": 55, "model": "graph.dashitem", "fields": {"dash": 6, "graph": 44, "order": 40} },
    {"pk": 56, "model": "graph.dashitem", "fields": {"dash": 6, "graph": 45, "order": 41} },
    {"pk": 57, "model": "graph.dashitem", "fields": {"dash": 6, "graph": 46, "order": 50} },

    {"pk": 64, "model": "graph.dashitem", "fields": {"dash": 7, "graph": 53, "order": 2} },
    {"pk": 65, "model": "graph.dashitem", "fields": {"dash": 7, "graph": 54, "order": 30} },
    {"pk": 66, "model": "graph.dashitem", "fields": {"dash": 7, "graph": 55, "order": 31} },
    {"pk": 67, "model": "graph.dashitem", "fields": {"dash": 7, "graph":  1, "order": 1} },
    {"pk": 68, "model": "graph.dashitem", "fields": {"dash": 7, "graph":  2, "order": 3} },
    {"pk": 69, "model": "graph.dashitem", "fields": {"dash": 7, "graph": 24, "order": 2} },
    {"pk": 70, "model": "graph.dashitem", "fields": {"dash": 7, "graph":  3, "order": 20} },
    {"pk": 71, "model": "graph.dashitem", "fields": {"dash": 7, "graph":  5, "order": 21} },
    {"pk": 72, "model": "graph.dashitem", "fields": {"dash": 7, "graph":  4, "order": 1} },
    {"pk": 73, "model": "graph.dashitem", "fields": {"dash": 7, "graph":  6, "order": 3} },
    {"pk": 74, "model": "graph.dashitem", "fields": {"dash": 7, "graph":  7, "order": 3} },
    {"pk": 75, "model": "graph.dashitem", "fields": {"dash": 7, "graph":  8, "order": 3} }


]
