

rr("deps/rabbit_common/include/rabbit_framing.hrl").                                                                                   

bunnyc:start_link(mq_producer, {network, "localhost", 5672, {<<"guest">>, <<"guest">>}, <<"/">>}, {#'exchange.declare'{exchange = <<"">>, durable=true}}, [] ).  
%% Start another gen_bunny as a producer/consumer using a named queue and exchange:                                                      
bunnyc:start_link(mq_consumer, {network, "localhost"}, {<<"myexchange">>, <<"myqueue">>, <<"">>}, []).                                 
                                                                                                                                          
bunnyc:publish(mq_producer, <<"myqueue">>, <<"hello, world">>).
